{
  "reflection": [
    {
      "type": "[B"
    },
    {
      "type": "[Ljava.lang.String;"
    },
    {
      "type": "[Lsun.security.pkcs.SignerInfo;"
    },
    {
      "type": "com.ctc.wstx.stax.WstxInputFactory"
    },
    {
      "type": "com.sun.crypto.provider.AESCipher$General",
      "methods": [
        {
          "name": "<init>",
          "parameterTypes": []
        }
      ]
    },
    {
      "type": "com.sun.crypto.provider.ARCFOURCipher",
      "methods": [
        {
          "name": "<init>",
          "parameterTypes": []
        }
      ]
    },
    {
      "type": "com.sun.crypto.provider.ChaCha20Cipher$ChaCha20Poly1305",
      "methods": [
        {
          "name": "<init>",
          "parameterTypes": []
        }
      ]
    },
    {
      "type": "com.sun.crypto.provider.DESCipher",
      "methods": [
        {
          "name": "<init>",
          "parameterTypes": []
        }
      ]
    },
    {
      "type": "com.sun.crypto.provider.DESedeCipher",
      "methods": [
        {
          "name": "<init>",
          "parameterTypes": []
        }
      ]
    },
    {
      "type": "com.sun.crypto.provider.DHParameters",
      "methods": [
        {
          "name": "<init>",
          "parameterTypes": []
        }
      ]
    },
    {
      "type": "com.sun.crypto.provider.GaloisCounterMode$AESGCM",
      "methods": [
        {
          "name": "<init>",
          "parameterTypes": []
        }
      ]
    },
    {
      "type": "com.sun.crypto.provider.HmacCore$HmacSHA384",
      "methods": [
        {
          "name": "<init>",
          "parameterTypes": []
        }
      ]
    },
    {
      "type": "com.sun.crypto.provider.TlsMasterSecretGenerator",
      "methods": [
        {
          "name": "<init>",
          "parameterTypes": []
        }
      ]
    },
    {
      "type": "com.sun.org.apache.xalan.internal.xsltc.trax.TransformerFactoryImpl",
      "methods": [
        {
          "name": "<init>",
          "parameterTypes": []
        }
      ]
    },
    {
      "type": "com.sun.org.apache.xerces.internal.impl.dv.xs.ExtendedSchemaDVFactoryImpl",
      "methods": [
        {
          "name": "<init>",
          "parameterTypes": []
        }
      ]
    },
    {
      "type": "com.sun.org.apache.xerces.internal.impl.dv.xs.SchemaDVFactoryImpl",
      "methods": [
        {
          "name": "<init>",
          "parameterTypes": []
        }
      ]
    },
    {
      "type": "com.sun.org.apache.xerces.internal.jaxp.DocumentBuilderFactoryImpl",
      "methods": [
        {
          "name": "<init>",
          "parameterTypes": []
        }
      ]
    },
    {
      "type": "com.sun.org.apache.xerces.internal.jaxp.datatype.DatatypeFactoryImpl",
      "methods": [
        {
          "name": "<init>",
          "parameterTypes": []
        }
      ]
    },
    {
      "type": "com.sun.org.apache.xml.internal.utils.FastStringBuffer",
      "methods": [
        {
          "name": "<init>",
          "parameterTypes": []
        }
      ]
    },
    {
      "type": "com.sun.org.apache.xpath.internal.functions.FuncLocalPart",
      "methods": [
        {
          "name": "<init>",
          "parameterTypes": []
        }
      ]
    },
    {
      "type": "com.sun.org.apache.xpath.internal.functions.FuncNot",
      "methods": [
        {
          "name": "<init>",
          "parameterTypes": []
        }
      ]
    },
    {
      "type": "eu.europa.esig.dss.asic.xades.validation.ASiCContainerWithXAdESValidatorFactory"
    },
    {
      "type": "eu.europa.esig.dss.cades.validation.CMSDocumentValidatorFactory"
    },
    {
      "type": "eu.europa.esig.dss.crl.stream.impl.CRLUtilsStreamImpl"
    },
    {
      "type": "eu.europa.esig.dss.enumerations.MimeTypeEnumLoader"
    },
    {
      "type": "eu.europa.esig.dss.jaxb.parsers.DateParser",
      "methods": [
        {
          "name": "<init>",
          "parameterTypes": []
        }
      ]
    },
    {
      "type": "eu.europa.esig.dss.pades.validation.PDFDocumentValidatorFactory"
    },
    {
      "type": "eu.europa.esig.dss.pdf.pdfbox.PdfBoxNativeObjectFactory"
    },
    {
      "type": "eu.europa.esig.dss.policy.jaxb.Algo",
      "allDeclaredFields": true,
      "methods": [
        {
          "name": "<init>",
          "parameterTypes": []
        }
      ]
    },
    {
      "type": "eu.europa.esig.dss.policy.jaxb.AlgoExpirationDate",
      "allDeclaredFields": true,
      "methods": [
        {
          "name": "<init>",
          "parameterTypes": []
        }
      ]
    },
    {
      "type": "eu.europa.esig.dss.policy.jaxb.BasicSignatureConstraints",
      "allDeclaredFields": true,
      "methods": [
        {
          "name": "<init>",
          "parameterTypes": []
        }
      ]
    },
    {
      "type": "eu.europa.esig.dss.policy.jaxb.CertificateConstraints",
      "allDeclaredFields": true,
      "methods": [
        {
          "name": "<init>",
          "parameterTypes": []
        }
      ]
    },
    {
      "type": "eu.europa.esig.dss.policy.jaxb.CertificateValuesConstraint",
      "allDeclaredFields": true,
      "methods": [
        {
          "name": "<init>",
          "parameterTypes": []
        }
      ]
    },
    {
      "type": "eu.europa.esig.dss.policy.jaxb.ConstraintsParameters",
      "allDeclaredFields": true,
      "methods": [
        {
          "name": "<init>",
          "parameterTypes": []
        }
      ]
    },
    {
      "type": "eu.europa.esig.dss.policy.jaxb.ContainerConstraints",
      "allDeclaredFields": true,
      "methods": [
        {
          "name": "<init>",
          "parameterTypes": []
        }
      ]
    },
    {
      "type": "eu.europa.esig.dss.policy.jaxb.CryptographicConstraint",
      "allDeclaredFields": true,
      "methods": [
        {
          "name": "<init>",
          "parameterTypes": []
        }
      ]
    },
    {
      "type": "eu.europa.esig.dss.policy.jaxb.EIDAS",
      "allDeclaredFields": true,
      "methods": [
        {
          "name": "<init>",
          "parameterTypes": []
        }
      ]
    },
    {
      "type": "eu.europa.esig.dss.policy.jaxb.EvidenceRecordConstraints",
      "allDeclaredFields": true,
      "methods": [
        {
          "name": "<init>",
          "parameterTypes": []
        }
      ]
    },
    {
      "type": "eu.europa.esig.dss.policy.jaxb.IntValueConstraint",
      "allDeclaredFields": true,
      "methods": [
        {
          "name": "<init>",
          "parameterTypes": []
        }
      ]
    },
    {
      "type": "eu.europa.esig.dss.policy.jaxb.Level",
      "allDeclaredFields": true,
      "fields": [
        {
          "name": "FAIL"
        },
        {
          "name": "IGNORE"
        },
        {
          "name": "INFORM"
        },
        {
          "name": "WARN"
        }
      ]
    },
    {
      "type": "eu.europa.esig.dss.policy.jaxb.LevelConstraint",
      "allDeclaredFields": true,
      "methods": [
        {
          "name": "<init>",
          "parameterTypes": []
        },
        {
          "name": "getAcceptableDigestAlgo",
          "parameterTypes": []
        },
        {
          "name": "getAcceptableEncryptionAlgo",
          "parameterTypes": []
        },
        {
          "name": "getAlgoExpirationDate",
          "parameterTypes": []
        },
        {
          "name": "getBasicSignatureConstraints",
          "parameterTypes": []
        },
        {
          "name": "getCertificateExtensions",
          "parameterTypes": []
        },
        {
          "name": "getCertificatePolicies",
          "parameterTypes": []
        },
        {
          "name": "getCryptographic",
          "parameterTypes": []
        },
        {
          "name": "getDataObjectExistence",
          "parameterTypes": []
        },
        {
          "name": "getDataObjectFound",
          "parameterTypes": []
        },
        {
          "name": "getDataObjectGroup",
          "parameterTypes": []
        },
        {
          "name": "getDataObjectIntact",
          "parameterTypes": []
        },
        {
          "name": "getEvidenceRecordValid",
          "parameterTypes": []
        },
        {
          "name": "getFormat",
          "parameterTypes": []
        },
        {
          "name": "getHashTreeRenewal",
          "parameterTypes": []
        },
        {
          "name": "getLevelAfterUpdate",
          "parameterTypes": []
        },
        {
          "name": "getMiniPublicKeySize",
          "parameterTypes": []
        },
        {
          "name": "getOCSPCertHashMatch",
          "parameterTypes": []
        },
        {
          "name": "getOCSPCertHashPresent",
          "parameterTypes": []
        },
        {
          "name": "getOCSPResponderIdMatch",
          "parameterTypes": []
        },
        {
          "name": "getSelfIssuedOCSP",
          "parameterTypes": []
        },
        {
          "name": "getUnit",
          "parameterTypes": []
        },
        {
          "name": "getUnknownStatus",
          "parameterTypes": []
        },
        {
          "name": "getUpdateDate",
          "parameterTypes": []
        },
        {
          "name": "getValue",
          "parameterTypes": []
        }
      ]
    },
    {
      "type": "eu.europa.esig.dss.policy.jaxb.ListAlgo",
      "allDeclaredFields": true,
      "methods": [
        {
          "name": "<init>",
          "parameterTypes": []
        },
        {
          "name": "getFormat",
          "parameterTypes": []
        },
        {
          "name": "getLevelAfterUpdate",
          "parameterTypes": []
        },
        {
          "name": "getUpdateDate",
          "parameterTypes": []
        }
      ]
    },
    {
      "type": "eu.europa.esig.dss.policy.jaxb.Model",
      "allDeclaredFields": true,
      "fields": [
        {
          "name": "CHAIN"
        },
        {
          "name": "HYBRID"
        },
        {
          "name": "SHELL"
        }
      ]
    },
    {
      "type": "eu.europa.esig.dss.policy.jaxb.ModelConstraint",
      "allDeclaredFields": true,
      "methods": [
        {
          "name": "<init>",
          "parameterTypes": []
        }
      ]
    },
    {
      "type": "eu.europa.esig.dss.policy.jaxb.MultiValuesConstraint",
      "allDeclaredFields": true,
      "methods": [
        {
          "name": "<init>",
          "parameterTypes": []
        }
      ]
    },
    {
      "type": "eu.europa.esig.dss.policy.jaxb.ObjectFactory",
      "fields": [
        {
          "name": "_useJAXBProperties"
        }
      ]
    },
    {
      "type": "eu.europa.esig.dss.policy.jaxb.PDFAConstraints",
      "allDeclaredFields": true,
      "methods": [
        {
          "name": "<init>",
          "parameterTypes": []
        }
      ]
    },
    {
      "type": "eu.europa.esig.dss.policy.jaxb.RevocationConstraints",
      "allDeclaredFields": true,
      "methods": [
        {
          "name": "<init>",
          "parameterTypes": []
        }
      ]
    },
    {
      "type": "eu.europa.esig.dss.policy.jaxb.SignatureConstraints",
      "allDeclaredFields": true,
      "methods": [
        {
          "name": "<init>",
          "parameterTypes": []
        }
      ]
    },
    {
      "type": "eu.europa.esig.dss.policy.jaxb.SignedAttributesConstraints",
      "allDeclaredFields": true,
      "methods": [
        {
          "name": "<init>",
          "parameterTypes": []
        }
      ]
    },
    {
      "type": "eu.europa.esig.dss.policy.jaxb.TimeConstraint",
      "allDeclaredFields": true,
      "methods": [
        {
          "name": "<init>",
          "parameterTypes": []
        }
      ]
    },
    {
      "type": "eu.europa.esig.dss.policy.jaxb.TimeUnit",
      "allDeclaredFields": true,
      "fields": [
        {
          "name": "DAYS"
        },
        {
          "name": "HOURS"
        },
        {
          "name": "MILLISECONDS"
        },
        {
          "name": "MINUTES"
        },
        {
          "name": "SECONDS"
        }
      ]
    },
    {
      "type": "eu.europa.esig.dss.policy.jaxb.TimestampConstraints",
      "allDeclaredFields": true,
      "methods": [
        {
          "name": "<init>",
          "parameterTypes": []
        }
      ]
    },
    {
      "type": "eu.europa.esig.dss.policy.jaxb.UnsignedAttributesConstraints",
      "allDeclaredFields": true,
      "methods": [
        {
          "name": "<init>",
          "parameterTypes": []
        }
      ]
    },
    {
      "type": "eu.europa.esig.dss.policy.jaxb.ValueConstraint",
      "allDeclaredFields": true,
      "methods": [
        {
          "name": "<init>",
          "parameterTypes": []
        }
      ]
    },
    {
      "type": "eu.europa.esig.dss.simplereport.jaxb.Adapter1",
      "methods": [
        {
          "name": "<init>",
          "parameterTypes": []
        }
      ]
    },
    {
      "type": "eu.europa.esig.dss.simplereport.jaxb.Adapter2",
      "methods": [
        {
          "name": "<init>",
          "parameterTypes": []
        }
      ]
    },
    {
      "type": "eu.europa.esig.dss.simplereport.jaxb.Adapter3",
      "methods": [
        {
          "name": "<init>",
          "parameterTypes": []
        }
      ]
    },
    {
      "type": "eu.europa.esig.dss.simplereport.jaxb.Adapter4",
      "methods": [
        {
          "name": "<init>",
          "parameterTypes": []
        }
      ]
    },
    {
      "type": "eu.europa.esig.dss.simplereport.jaxb.Adapter5",
      "methods": [
        {
          "name": "<init>",
          "parameterTypes": []
        }
      ]
    },
    {
      "type": "eu.europa.esig.dss.simplereport.jaxb.Adapter6",
      "methods": [
        {
          "name": "<init>",
          "parameterTypes": []
        }
      ]
    },
    {
      "type": "eu.europa.esig.dss.simplereport.jaxb.Adapter7",
      "methods": [
        {
          "name": "<init>",
          "parameterTypes": []
        }
      ]
    },
    {
      "type": "eu.europa.esig.dss.simplereport.jaxb.ObjectFactory",
      "fields": [
        {
          "name": "_useJAXBProperties"
        }
      ]
    },
    {
      "type": "eu.europa.esig.dss.simplereport.jaxb.XmlCertificate",
      "allDeclaredFields": true,
      "methods": [
        {
          "name": "<init>",
          "parameterTypes": []
        }
      ]
    },
    {
      "type": "eu.europa.esig.dss.simplereport.jaxb.XmlCertificateChain",
      "allDeclaredFields": true,
      "methods": [
        {
          "name": "<init>",
          "parameterTypes": []
        }
      ]
    },
    {
      "type": "eu.europa.esig.dss.simplereport.jaxb.XmlDetails",
      "allDeclaredFields": true,
      "methods": [
        {
          "name": "<init>",
          "parameterTypes": []
        }
      ]
    },
    {
      "type": "eu.europa.esig.dss.simplereport.jaxb.XmlEvidenceRecord",
      "allDeclaredFields": true,
      "methods": [
        {
          "name": "<init>",
          "parameterTypes": []
        }
      ]
    },
    {
      "type": "eu.europa.esig.dss.simplereport.jaxb.XmlEvidenceRecords",
      "allDeclaredFields": true,
      "methods": [
        {
          "name": "<init>",
          "parameterTypes": []
        }
      ]
    },
    {
      "type": "eu.europa.esig.dss.simplereport.jaxb.XmlMessage",
      "allDeclaredFields": true,
      "methods": [
        {
          "name": "<init>",
          "parameterTypes": []
        }
      ]
    },
    {
      "type": "eu.europa.esig.dss.simplereport.jaxb.XmlPDFAInfo",
      "allDeclaredFields": true,
      "methods": [
        {
          "name": "<init>",
          "parameterTypes": []
        }
      ]
    },
    {
      "type": "eu.europa.esig.dss.simplereport.jaxb.XmlSemantic",
      "allDeclaredFields": true,
      "methods": [
        {
          "name": "<init>",
          "parameterTypes": []
        }
      ]
    },
    {
      "type": "eu.europa.esig.dss.simplereport.jaxb.XmlSignature",
      "allDeclaredFields": true,
      "methods": [
        {
          "name": "<init>",
          "parameterTypes": []
        }
      ]
    },
    {
      "type": "eu.europa.esig.dss.simplereport.jaxb.XmlSignatureLevel",
      "allDeclaredFields": true,
      "methods": [
        {
          "name": "<init>",
          "parameterTypes": []
        }
      ]
    },
    {
      "type": "eu.europa.esig.dss.simplereport.jaxb.XmlSignatureScope",
      "allDeclaredFields": true,
      "methods": [
        {
          "name": "<init>",
          "parameterTypes": []
        }
      ]
    },
    {
      "type": "eu.europa.esig.dss.simplereport.jaxb.XmlSimpleReport",
      "allDeclaredFields": true,
      "methods": [
        {
          "name": "<init>",
          "parameterTypes": []
        }
      ]
    },
    {
      "type": "eu.europa.esig.dss.simplereport.jaxb.XmlTimestamp",
      "allDeclaredFields": true,
      "methods": [
        {
          "name": "<init>",
          "parameterTypes": []
        }
      ]
    },
    {
      "type": "eu.europa.esig.dss.simplereport.jaxb.XmlTimestampLevel",
      "allDeclaredFields": true,
      "methods": [
        {
          "name": "<init>",
          "parameterTypes": []
        }
      ]
    },
    {
      "type": "eu.europa.esig.dss.simplereport.jaxb.XmlTimestamps",
      "allDeclaredFields": true,
      "methods": [
        {
          "name": "<init>",
          "parameterTypes": []
        }
      ]
    },
    {
      "type": "eu.europa.esig.dss.simplereport.jaxb.XmlToken",
      "allDeclaredFields": true,
      "methods": [
        {
          "name": "<init>",
          "parameterTypes": []
        },
        {
          "name": "getBestSignatureTime",
          "parameterTypes": []
        },
        {
          "name": "getEvidenceRecords",
          "parameterTypes": []
        },
        {
          "name": "getExtensionPeriodMax",
          "parameterTypes": []
        },
        {
          "name": "getExtensionPeriodMin",
          "parameterTypes": []
        },
        {
          "name": "getPOETime",
          "parameterTypes": []
        },
        {
          "name": "getParentId",
          "parameterTypes": []
        },
        {
          "name": "getProducedBy",
          "parameterTypes": []
        },
        {
          "name": "getProductionTime",
          "parameterTypes": []
        },
        {
          "name": "getSignatureFormat",
          "parameterTypes": []
        },
        {
          "name": "getSignatureLevel",
          "parameterTypes": []
        },
        {
          "name": "getSignedBy",
          "parameterTypes": []
        },
        {
          "name": "getSigningTime",
          "parameterTypes": []
        },
        {
          "name": "getTimestampLevel",
          "parameterTypes": []
        },
        {
          "name": "getTimestamps",
          "parameterTypes": []
        },
        {
          "name": "isCounterSignature",
          "parameterTypes": []
        }
      ]
    },
    {
      "type": "eu.europa.esig.dss.simplereport.jaxb.XmlTrustAnchor",
      "allDeclaredFields": true,
      "methods": [
        {
          "name": "<init>",
          "parameterTypes": []
        }
      ]
    },
    {
      "type": "eu.europa.esig.dss.simplereport.jaxb.XmlTrustAnchors",
      "allDeclaredFields": true,
      "methods": [
        {
          "name": "<init>",
          "parameterTypes": []
        }
      ]
    },
    {
      "type": "eu.europa.esig.dss.simplereport.jaxb.XmlValidationMessages",
      "allDeclaredFields": true,
      "methods": [
        {
          "name": "<init>",
          "parameterTypes": []
        }
      ]
    },
    {
      "type": "eu.europa.esig.dss.simplereport.jaxb.XmlValidationPolicy",
      "allDeclaredFields": true,
      "methods": [
        {
          "name": "<init>",
          "parameterTypes": []
        }
      ]
    },
    {
      "type": "eu.europa.esig.dss.utils.apache.impl.ApacheCommonsUtils"
    },
    {
      "type": "eu.europa.esig.dss.xades.validation.XMLDocumentValidatorFactory"
    },
    {
      "type": "jakarta.xml.bind.annotation.XmlAccessorType",
      "methods": [
        {
          "name": "value",
          "parameterTypes": []
        }
      ]
    },
    {
      "type": "jakarta.xml.bind.annotation.XmlElement",
      "methods": [
        {
          "name": "type",
          "parameterTypes": []
        }
      ]
    },
    {
      "type": "jakarta.xml.bind.annotation.XmlElementDecl",
      "methods": [
        {
          "name": "scope",
          "parameterTypes": []
        }
      ]
    },
    {
      "type": "jakarta.xml.bind.annotation.XmlElements",
      "methods": [
        {
          "name": "value",
          "parameterTypes": []
        }
      ]
    },
    {
      "type": "jakarta.xml.bind.annotation.XmlEnum",
      "methods": [
        {
          "name": "value",
          "parameterTypes": []
        }
      ]
    },
    {
      "type": "jakarta.xml.bind.annotation.XmlRegistry"
    },
    {
      "type": "jakarta.xml.bind.annotation.XmlSeeAlso",
      "methods": [
        {
          "name": "value",
          "parameterTypes": []
        }
      ]
    },
    {
      "type": "jakarta.xml.bind.annotation.XmlType",
      "methods": [
        {
          "name": "factoryClass",
          "parameterTypes": []
        }
      ]
    },
    {
      "type": "jakarta.xml.bind.annotation.adapters.XmlJavaTypeAdapter",
      "methods": [
        {
          "name": "type",
          "parameterTypes": []
        },
        {
          "name": "value",
          "parameterTypes": []
        }
      ]
    },
    {
      "type": "java.lang.Object",
      "methods": [
        {
          "name": "getAcceptableContainerTypes",
          "parameterTypes": []
        },
        {
          "name": "getAcceptableDigestAlgo",
          "parameterTypes": []
        },
        {
          "name": "getAcceptableEncryptionAlgo",
          "parameterTypes": []
        },
        {
          "name": "getAcceptableFormats",
          "parameterTypes": []
        },
        {
          "name": "getAcceptableMimeTypeFileContent",
          "parameterTypes": []
        },
        {
          "name": "getAcceptablePDFAProfiles",
          "parameterTypes": []
        },
        {
          "name": "getAcceptablePolicies",
          "parameterTypes": []
        },
        {
          "name": "getAcceptableRevocationDataFound",
          "parameterTypes": []
        },
        {
          "name": "getAcceptableZipComment",
          "parameterTypes": []
        },
        {
          "name": "getAdESValidationDetails",
          "parameterTypes": []
        },
        {
          "name": "getAlgoExpirationDate",
          "parameterTypes": []
        },
        {
          "name": "getAllFilesSigned",
          "parameterTypes": []
        },
        {
          "name": "getAnnotationChanges",
          "parameterTypes": []
        },
        {
          "name": "getArchiveTimeStamp",
          "parameterTypes": []
        },
        {
          "name": "getAuthorityInfoAccessPresent",
          "parameterTypes": []
        },
        {
          "name": "getBasicSignatureConstraints",
          "parameterTypes": []
        },
        {
          "name": "getBestSignatureTime",
          "parameterTypes": []
        },
        {
          "name": "getBestSignatureTimeBeforeExpirationDateOfSigningCertificate",
          "parameterTypes": []
        },
        {
          "name": "getByteRange",
          "parameterTypes": []
        },
        {
          "name": "getByteRangeAllDocument",
          "parameterTypes": []
        },
        {
          "name": "getByteRangeCollision",
          "parameterTypes": []
        },
        {
          "name": "getCA",
          "parameterTypes": []
        },
        {
          "name": "getCACertificate",
          "parameterTypes": []
        },
        {
          "name": "getCRLNextUpdatePresent",
          "parameterTypes": []
        },
        {
          "name": "getCertDigestMatch",
          "parameterTypes": []
        },
        {
          "name": "getCertDigestPresent",
          "parameterTypes": []
        },
        {
          "name": "getCertificateChain",
          "parameterTypes": []
        },
        {
          "name": "getCertificateExtensions",
          "parameterTypes": []
        },
        {
          "name": "getCertificatePolicies",
          "parameterTypes": []
        },
        {
          "name": "getCertifiedRoles",
          "parameterTypes": []
        },
        {
          "name": "getClaimedRoles",
          "parameterTypes": []
        },
        {
          "name": "getCoherence",
          "parameterTypes": []
        },
        {
          "name": "getCommitmentTypeIndication",
          "parameterTypes": []
        },
        {
          "name": "getCommonName",
          "parameterTypes": []
        },
        {
          "name": "getContainerConstraints",
          "parameterTypes": []
        },
        {
          "name": "getContainerType",
          "parameterTypes": []
        },
        {
          "name": "getContentHints",
          "parameterTypes": []
        },
        {
          "name": "getContentIdentifier",
          "parameterTypes": []
        },
        {
          "name": "getContentTimeStamp",
          "parameterTypes": []
        },
        {
          "name": "getContentTimeStampMessageImprint",
          "parameterTypes": []
        },
        {
          "name": "getContentType",
          "parameterTypes": []
        },
        {
          "name": "getCounterSignature",
          "parameterTypes": []
        },
        {
          "name": "getCounterSignatureConstraints",
          "parameterTypes": []
        },
        {
          "name": "getCountry",
          "parameterTypes": []
        },
        {
          "name": "getCountryCode",
          "parameterTypes": []
        },
        {
          "name": "getCryptographic",
          "parameterTypes": []
        },
        {
          "name": "getDataObjectExistence",
          "parameterTypes": []
        },
        {
          "name": "getDataObjectFound",
          "parameterTypes": []
        },
        {
          "name": "getDataObjectGroup",
          "parameterTypes": []
        },
        {
          "name": "getDataObjectIntact",
          "parameterTypes": []
        },
        {
          "name": "getDate",
          "parameterTypes": []
        },
        {
          "name": "getDescription",
          "parameterTypes": []
        },
        {
          "name": "getDocMDP",
          "parameterTypes": []
        },
        {
          "name": "getDocumentName",
          "parameterTypes": []
        },
        {
          "name": "getDocumentTimeStamp",
          "parameterTypes": []
        },
        {
          "name": "getEIDAS",
          "parameterTypes": []
        },
        {
          "name": "getEllipticCurveKeySize",
          "parameterTypes": []
        },
        {
          "name": "getEmail",
          "parameterTypes": []
        },
        {
          "name": "getEvidenceRecord",
          "parameterTypes": []
        },
        {
          "name": "getEvidenceRecordValid",
          "parameterTypes": []
        },
        {
          "name": "getEvidenceRecords",
          "parameterTypes": []
        },
        {
          "name": "getExtendedKeyUsage",
          "parameterTypes": []
        },
        {
          "name": "getExtensionPeriodMax",
          "parameterTypes": []
        },
        {
          "name": "getExtensionPeriodMin",
          "parameterTypes": []
        },
        {
          "name": "getFieldMDP",
          "parameterTypes": []
        },
        {
          "name": "getFilename",
          "parameterTypes": []
        },
        {
          "name": "getForbiddenExtensions",
          "parameterTypes": []
        },
        {
          "name": "getFormFillChanges",
          "parameterTypes": []
        },
        {
          "name": "getFormat",
          "parameterTypes": []
        },
        {
          "name": "getFullScope",
          "parameterTypes": []
        },
        {
          "name": "getGivenName",
          "parameterTypes": []
        },
        {
          "name": "getHashTreeRenewal",
          "parameterTypes": []
        },
        {
          "name": "getId",
          "parameterTypes": []
        },
        {
          "name": "getIndication",
          "parameterTypes": []
        },
        {
          "name": "getIssuedToLegalPerson",
          "parameterTypes": []
        },
        {
          "name": "getIssuedToNaturalPerson",
          "parameterTypes": []
        },
        {
          "name": "getIssuerName",
          "parameterTypes": []
        },
        {
          "name": "getIssuerSerialMatch",
          "parameterTypes": []
        },
        {
          "name": "getKey",
          "parameterTypes": []
        },
        {
          "name": "getKeyIdentifierMatch",
          "parameterTypes": []
        },
        {
          "name": "getKeyIdentifierPresent",
          "parameterTypes": []
        },
        {
          "name": "getKeyUsage",
          "parameterTypes": []
        },
        {
          "name": "getLTALevelTimeStamp",
          "parameterTypes": []
        },
        {
          "name": "getLevel",
          "parameterTypes": []
        },
        {
          "name": "getLevelAfterUpdate",
          "parameterTypes": []
        },
        {
          "name": "getLocality",
          "parameterTypes": []
        },
        {
          "name": "getManifestEntryNameMatch",
          "parameterTypes": []
        },
        {
          "name": "getManifestEntryObjectExistence",
          "parameterTypes": []
        },
        {
          "name": "getManifestEntryObjectGroup",
          "parameterTypes": []
        },
        {
          "name": "getManifestEntryObjectIntact",
          "parameterTypes": []
        },
        {
          "name": "getManifestFilePresent",
          "parameterTypes": []
        },
        {
          "name": "getMaxPathLength",
          "parameterTypes": []
        },
        {
          "name": "getMessageDigestOrSignedPropertiesPresent",
          "parameterTypes": []
        },
        {
          "name": "getMimeTypeFilePresent",
          "parameterTypes": []
        },
        {
          "name": "getMinQcEuLimitValue",
          "parameterTypes": []
        },
        {
          "name": "getMinQcEuRetentionPeriod",
          "parameterTypes": []
        },
        {
          "name": "getMiniPublicKeySize",
          "parameterTypes": []
        },
        {
          "name": "getModel",
          "parameterTypes": []
        },
        {
          "name": "getName",
          "parameterTypes": []
        },
        {
          "name": "getNameConstraints",
          "parameterTypes": []
        },
        {
          "name": "getNotExpired",
          "parameterTypes": []
        },
        {
          "name": "getNotOnHold",
          "parameterTypes": []
        },
        {
          "name": "getNotRevoked",
          "parameterTypes": []
        },
        {
          "name": "getNotSelfSigned",
          "parameterTypes": []
        },
        {
          "name": "getOCSPCertHashMatch",
          "parameterTypes": []
        },
        {
          "name": "getOCSPCertHashPresent",
          "parameterTypes": []
        },
        {
          "name": "getOCSPNextUpdatePresent",
          "parameterTypes": []
        },
        {
          "name": "getOCSPResponderIdMatch",
          "parameterTypes": []
        },
        {
          "name": "getOrganizationIdentifier",
          "parameterTypes": []
        },
        {
          "name": "getOrganizationName",
          "parameterTypes": []
        },
        {
          "name": "getOrganizationUnit",
          "parameterTypes": []
        },
        {
          "name": "getPDFACompliant",
          "parameterTypes": []
        },
        {
          "name": "getPDFAConstraints",
          "parameterTypes": []
        },
        {
          "name": "getPDFAInfo",
          "parameterTypes": []
        },
        {
          "name": "getPDFAProfile",
          "parameterTypes": []
        },
        {
          "name": "getPOETime",
          "parameterTypes": []
        },
        {
          "name": "getPSD2QcCompetentAuthorityId",
          "parameterTypes": []
        },
        {
          "name": "getPSD2QcCompetentAuthorityName",
          "parameterTypes": []
        },
        {
          "name": "getPSD2QcTypeRolesOfPSP",
          "parameterTypes": []
        },
        {
          "name": "getParentId",
          "parameterTypes": []
        },
        {
          "name": "getPdfAnnotationOverlap",
          "parameterTypes": []
        },
        {
          "name": "getPdfPageDifference",
          "parameterTypes": []
        },
        {
          "name": "getPdfSignatureDictionary",
          "parameterTypes": []
        },
        {
          "name": "getPdfVisualDifference",
          "parameterTypes": []
        },
        {
          "name": "getPolicyAvailable",
          "parameterTypes": []
        },
        {
          "name": "getPolicyDescription",
          "parameterTypes": []
        },
        {
          "name": "getPolicyHashMatch",
          "parameterTypes": []
        },
        {
          "name": "getPolicyIds",
          "parameterTypes": []
        },
        {
          "name": "getPolicyName",
          "parameterTypes": []
        },
        {
          "name": "getPolicyQualificationIds",
          "parameterTypes": []
        },
        {
          "name": "getPolicySupportedByQSCDIds",
          "parameterTypes": []
        },
        {
          "name": "getPolicyTree",
          "parameterTypes": []
        },
        {
          "name": "getProducedBy",
          "parameterTypes": []
        },
        {
          "name": "getProductionTime",
          "parameterTypes": []
        },
        {
          "name": "getProspectiveCertificateChain",
          "parameterTypes": []
        },
        {
          "name": "getPseudonym",
          "parameterTypes": []
        },
        {
          "name": "getQcCompliance",
          "parameterTypes": []
        },
        {
          "name": "getQcEuLimitValueCurrency",
          "parameterTypes": []
        },
        {
          "name": "getQcEuPDSLocation",
          "parameterTypes": []
        },
        {
          "name": "getQcLegislationCountryCodes",
          "parameterTypes": []
        },
        {
          "name": "getQcSSCD",
          "parameterTypes": []
        },
        {
          "name": "getQcType",
          "parameterTypes": []
        },
        {
          "name": "getQualificationDetails",
          "parameterTypes": []
        },
        {
          "name": "getQualifiedName",
          "parameterTypes": []
        },
        {
          "name": "getRecognition",
          "parameterTypes": []
        },
        {
          "name": "getReferenceDataExistence",
          "parameterTypes": []
        },
        {
          "name": "getReferenceDataIntact",
          "parameterTypes": []
        },
        {
          "name": "getReferenceDataNameMatch",
          "parameterTypes": []
        },
        {
          "name": "getReferencesToAllCertificateChainPresent",
          "parameterTypes": []
        },
        {
          "name": "getRevocation",
          "parameterTypes": []
        },
        {
          "name": "getRevocationDataAvailable",
          "parameterTypes": []
        },
        {
          "name": "getRevocationDataSkip",
          "parameterTypes": []
        },
        {
          "name": "getRevocationFreshness",
          "parameterTypes": []
        },
        {
          "name": "getRevocationFreshnessNextUpdate",
          "parameterTypes": []
        },
        {
          "name": "getRevocationInfoAccessPresent",
          "parameterTypes": []
        },
        {
          "name": "getRevocationIssuerNotExpired",
          "parameterTypes": []
        },
        {
          "name": "getRevocationTimeAgainstBestSignatureTime",
          "parameterTypes": []
        },
        {
          "name": "getScope",
          "parameterTypes": []
        },
        {
          "name": "getSelfIssuedOCSP",
          "parameterTypes": []
        },
        {
          "name": "getSelfSigned",
          "parameterTypes": []
        },
        {
          "name": "getSemanticsIdentifier",
          "parameterTypes": []
        },
        {
          "name": "getSerialNumberPresent",
          "parameterTypes": []
        },
        {
          "name": "getSigFieldLock",
          "parameterTypes": []
        },
        {
          "name": "getSignature",
          "parameterTypes": []
        },
        {
          "name": "getSignatureConstraints",
          "parameterTypes": []
        },
        {
          "name": "getSignatureDuplicated",
          "parameterTypes": []
        },
        {
          "name": "getSignatureFormat",
          "parameterTypes": []
        },
        {
          "name": "getSignatureIntact",
          "parameterTypes": []
        },
        {
          "name": "getSignatureLevel",
          "parameterTypes": []
        },
        {
          "name": "getSignaturePolicyStorePresent",
          "parameterTypes": []
        },
        {
          "name": "getSignatureTimeStamp",
          "parameterTypes": []
        },
        {
          "name": "getSignatureValid",
          "parameterTypes": []
        },
        {
          "name": "getSignaturesCount",
          "parameterTypes": []
        },
        {
          "name": "getSignedAttributes",
          "parameterTypes": []
        },
        {
          "name": "getSignedBy",
          "parameterTypes": []
        },
        {
          "name": "getSignedFilesPresent",
          "parameterTypes": []
        },
        {
          "name": "getSignerInformationStore",
          "parameterTypes": []
        },
        {
          "name": "getSignerLocation",
          "parameterTypes": []
        },
        {
          "name": "getSigningCertificate",
          "parameterTypes": []
        },
        {
          "name": "getSigningCertificateDigestAlgorithm",
          "parameterTypes": []
        },
        {
          "name": "getSigningCertificatePresent",
          "parameterTypes": []
        },
        {
          "name": "getSigningCertificateRefersCertificateChain",
          "parameterTypes": []
        },
        {
          "name": "getSigningTime",
          "parameterTypes": []
        },
        {
          "name": "getSize",
          "parameterTypes": []
        },
        {
          "name": "getState",
          "parameterTypes": []
        },
        {
          "name": "getStructuralValidation",
          "parameterTypes": []
        },
        {
          "name": "getSubIndication",
          "parameterTypes": []
        },
        {
          "name": "getSupportedCriticalExtensions",
          "parameterTypes": []
        },
        {
          "name": "getSurname",
          "parameterTypes": []
        },
        {
          "name": "getTLFreshness",
          "parameterTypes": []
        },
        {
          "name": "getTLNotExpired",
          "parameterTypes": []
        },
        {
          "name": "getTLVersion",
          "parameterTypes": []
        },
        {
          "name": "getTLWellSigned",
          "parameterTypes": []
        },
        {
          "name": "getTLevelTimeStamp",
          "parameterTypes": []
        },
        {
          "name": "getTSAGeneralNameContentMatch",
          "parameterTypes": []
        },
        {
          "name": "getTSAGeneralNameOrderMatch",
          "parameterTypes": []
        },
        {
          "name": "getTSAGeneralNamePresent",
          "parameterTypes": []
        },
        {
          "name": "getTSLType",
          "parameterTypes": []
        },
        {
          "name": "getTimestamp",
          "parameterTypes": []
        },
        {
          "name": "getTimestampDelay",
          "parameterTypes": []
        },
        {
          "name": "getTimestampLevel",
          "parameterTypes": []
        },
        {
          "name": "getTimestampValid",
          "parameterTypes": []
        },
        {
          "name": "getTimestamps",
          "parameterTypes": []
        },
        {
          "name": "getTitle",
          "parameterTypes": []
        },
        {
          "name": "getTrustAnchors",
          "parameterTypes": []
        },
        {
          "name": "getTrustServiceProvider",
          "parameterTypes": []
        },
        {
          "name": "getTrustServiceProviderRegistrationId",
          "parameterTypes": []
        },
        {
          "name": "getTrustServiceStatus",
          "parameterTypes": []
        },
        {
          "name": "getTrustServiceTypeIdentifier",
          "parameterTypes": []
        },
        {
          "name": "getUndefinedChanges",
          "parameterTypes": []
        },
        {
          "name": "getUnicitySigningCertificate",
          "parameterTypes": []
        },
        {
          "name": "getUnit",
          "parameterTypes": []
        },
        {
          "name": "getUnknownStatus",
          "parameterTypes": []
        },
        {
          "name": "getUnsignedAttributes",
          "parameterTypes": []
        },
        {
          "name": "getUpdateDate",
          "parameterTypes": []
        },
        {
          "name": "getUsePseudonym",
          "parameterTypes": []
        },
        {
          "name": "getValidSignaturesCount",
          "parameterTypes": []
        },
        {
          "name": "getValidationDataRefsOnlyTimeStamp",
          "parameterTypes": []
        },
        {
          "name": "getValidationDataTimeStamp",
          "parameterTypes": []
        },
        {
          "name": "getValidationMessages",
          "parameterTypes": []
        },
        {
          "name": "getValidationPolicy",
          "parameterTypes": []
        },
        {
          "name": "getValidationTime",
          "parameterTypes": []
        },
        {
          "name": "getValue",
          "parameterTypes": []
        },
        {
          "name": "getZipCommentPresent",
          "parameterTypes": []
        },
        {
          "name": "isCounterSignature",
          "parameterTypes": []
        },
        {
          "name": "isValid",
          "parameterTypes": []
        }
      ]
    },
    {
      "type": "java.lang.String"
    },
    {
      "type": "java.lang.Thread",
      "fields": [
        {
          "name": "threadLocalRandomProbe"
        }
      ]
    },
    {
      "type": "java.lang.annotation.Annotation",
      "methods": [
        {
          "name": "annotationType",
          "parameterTypes": []
        }
      ]
    },
    {
      "type": "java.security.AlgorithmParametersSpi"
    },
    {
      "type": "java.security.KeyStoreSpi"
    },
    {
      "type": "java.security.SecureRandomParameters"
    },
    {
      "type": "java.security.cert.PKIXRevocationChecker"
    },
    {
      "type": "java.security.interfaces.ECPrivateKey"
    },
    {
      "type": "java.security.interfaces.ECPublicKey"
    },
    {
      "type": "java.security.interfaces.RSAPrivateKey"
    },
    {
      "type": "java.security.interfaces.RSAPublicKey"
    },
    {
      "type": "java.util.ArrayList",
      "methods": [
        {
          "name": "<init>",
          "parameterTypes": []
        }
      ]
    },
    {
      "type": "java.util.Date"
    },
    {
      "type": "java.util.concurrent.atomic.AtomicBoolean",
      "fields": [
        {
          "name": "value"
        }
      ]
    },
    {
      "type": "java.util.concurrent.atomic.AtomicMarkableReference",
      "fields": [
        {
          "name": "pair"
        }
      ]
    },
    {
      "type": "java.util.concurrent.atomic.AtomicReference",
      "fields": [
        {
          "name": "value"
        }
      ]
    },
    {
      "type": "java.util.concurrent.atomic.Striped64",
      "fields": [
        {
          "name": "base"
        },
        {
          "name": "cellsBusy"
        }
      ]
    },
    {
      "type": "javax.imageio.spi.ImageReaderSpi"
    },
    {
      "type": "javax.imageio.spi.ImageReaderWriterSpi",
      "methods": [
        {
          "name": "getFileSuffixes",
          "parameterTypes": []
        },
        {
          "name": "getFormatNames",
          "parameterTypes": []
        },
        {
          "name": "getMIMETypes",
          "parameterTypes": []
        }
      ]
    },
    {
      "type": "javax.imageio.spi.ImageWriterSpi"
    },
    {
      "type": "javax.security.auth.x500.X500Principal",
      "fields": [
        {
          "name": "thisX500Name"
        }
      ],
      "methods": [
        {
          "name": "<init>",
          "parameterTypes": [
            "sun.security.x509.X500Name"
          ]
        }
      ]
    },
    {
      "type": "org.apache.commons.logging.LogFactory"
    },
    {
      "type": "org.apache.commons.logging.impl.Jdk14Logger",
      "methods": [
        {
          "name": "<init>",
          "parameterTypes": [
            "java.lang.String"
          ]
        },
        {
          "name": "setLogFactory",
          "parameterTypes": [
            "org.apache.commons.logging.LogFactory"
          ]
        }
      ]
    },
    {
      "type": "org.apache.commons.logging.impl.Log4JLogger"
    },
    {
      "type": "org.apache.commons.logging.impl.Log4jApiLogFactory"
    },
    {
      "type": "org.apache.commons.logging.impl.LogFactoryImpl",
      "methods": [
        {
          "name": "<init>",
          "parameterTypes": []
        }
      ]
    },
    {
      "type": "org.apache.commons.logging.impl.Slf4jLogFactory",
      "methods": [
        {
          "name": "<init>",
          "parameterTypes": []
        }
      ]
    },
    {
      "type": "org.apache.commons.logging.impl.WeakHashtable",
      "methods": [
        {
          "name": "<init>",
          "parameterTypes": []
        }
      ]
    },
    {
      "type": "org.apache.logging.log4j.Logger"
    },
    {
      "type": "org.apache.logging.slf4j.SLF4JProvider"
    },
    {
      "type": "org.apache.pdfbox.pdmodel.encryption.StandardSecurityHandler",
      "methods": [
        {
          "name": "<init>",
          "parameterTypes": []
        }
      ]
    },
    {
      "type": "org.apache.xml.security.algorithms.implementations.SignatureBaseRSA$SignatureRSASHA256",
      "methods": [
        {
          "name": "<init>",
          "parameterTypes": []
        }
      ]
    },
    {
      "type": "org.apache.xml.security.algorithms.implementations.SignatureBaseRSA$SignatureRSASHA512",
      "methods": [
        {
          "name": "<init>",
          "parameterTypes": []
        }
      ]
    },
    {
      "type": "org.apache.xml.security.c14n.implementations.Canonicalizer20010315ExclOmitComments",
      "methods": [
        {
          "name": "<init>",
          "parameterTypes": []
        }
      ]
    },
    {
      "type": "org.apache.xml.security.c14n.implementations.Canonicalizer20010315OmitComments",
      "methods": [
        {
          "name": "<init>",
          "parameterTypes": []
        }
      ]
    },
    {
      "type": "org.bouncycastle.jcajce.provider.asymmetric.COMPOSITE$Mappings",
      "methods": [
        {
          "name": "<init>",
          "parameterTypes": []
        }
      ]
    },
    {
      "type": "org.bouncycastle.jcajce.provider.asymmetric.CompositeSignatures$Mappings",
      "methods": [
        {
          "name": "<init>",
          "parameterTypes": []
        }
      ]
    },
    {
      "type": "org.bouncycastle.jcajce.provider.asymmetric.DH$Mappings",
      "methods": [
        {
          "name": "<init>",
          "parameterTypes": []
        }
      ]
    },
    {
      "type": "org.bouncycastle.jcajce.provider.asymmetric.DSA$Mappings",
      "methods": [
        {
          "name": "<init>",
          "parameterTypes": []
        }
      ]
    },
    {
      "type": "org.bouncycastle.jcajce.provider.asymmetric.DSTU4145$Mappings",
      "methods": [
        {
          "name": "<init>",
          "parameterTypes": []
        }
      ]
    },
    {
      "type": "org.bouncycastle.jcajce.provider.asymmetric.Dilithium$Mappings",
      "methods": [
        {
          "name": "<init>",
          "parameterTypes": []
        }
      ]
    },
    {
      "type": "org.bouncycastle.jcajce.provider.asymmetric.EC$Mappings",
      "methods": [
        {
          "name": "<init>",
          "parameterTypes": []
        }
      ]
    },
    {
      "type": "org.bouncycastle.jcajce.provider.asymmetric.ECGOST$Mappings",
      "methods": [
        {
          "name": "<init>",
          "parameterTypes": []
        }
      ]
    },
    {
      "type": "org.bouncycastle.jcajce.provider.asymmetric.EXTERNAL$Mappings",
      "methods": [
        {
          "name": "<init>",
          "parameterTypes": []
        }
      ]
    },
    {
      "type": "org.bouncycastle.jcajce.provider.asymmetric.EdEC$Mappings",
      "methods": [
        {
          "name": "<init>",
          "parameterTypes": []
        }
      ]
    },
    {
      "type": "org.bouncycastle.jcajce.provider.asymmetric.ElGamal$Mappings",
      "methods": [
        {
          "name": "<init>",
          "parameterTypes": []
        }
      ]
    },
    {
      "type": "org.bouncycastle.jcajce.provider.asymmetric.Falcon$Mappings",
      "methods": [
        {
          "name": "<init>",
          "parameterTypes": []
        }
      ]
    },
    {
      "type": "org.bouncycastle.jcajce.provider.asymmetric.GM$Mappings",
      "methods": [
        {
          "name": "<init>",
          "parameterTypes": []
        }
      ]
    },
    {
      "type": "org.bouncycastle.jcajce.provider.asymmetric.GOST$Mappings",
      "methods": [
        {
          "name": "<init>",
          "parameterTypes": []
        }
      ]
    },
    {
      "type": "org.bouncycastle.jcajce.provider.asymmetric.IES$Mappings",
      "methods": [
        {
          "name": "<init>",
          "parameterTypes": []
        }
      ]
    },
    {
      "type": "org.bouncycastle.jcajce.provider.asymmetric.LMS$Mappings",
      "methods": [
        {
          "name": "<init>",
          "parameterTypes": []
        }
      ]
    },
    {
      "type": "org.bouncycastle.jcajce.provider.asymmetric.NTRU$Mappings",
      "methods": [
        {
          "name": "<init>",
          "parameterTypes": []
        }
      ]
    },
    {
      "type": "org.bouncycastle.jcajce.provider.asymmetric.RSA$Mappings",
      "methods": [
        {
          "name": "<init>",
          "parameterTypes": []
        }
      ]
    },
    {
      "type": "org.bouncycastle.jcajce.provider.asymmetric.SPHINCSPlus$Mappings",
      "methods": [
        {
          "name": "<init>",
          "parameterTypes": []
        }
      ]
    },
    {
      "type": "org.bouncycastle.jcajce.provider.asymmetric.X509$Mappings",
      "methods": [
        {
          "name": "<init>",
          "parameterTypes": []
        }
      ]
    },
    {
      "type": "org.bouncycastle.jcajce.provider.asymmetric.rsa.DigestSignatureSpi$SHA1",
      "methods": [
        {
          "name": "<init>",
          "parameterTypes": []
        }
      ]
    },
    {
      "type": "org.bouncycastle.jcajce.provider.asymmetric.rsa.DigestSignatureSpi$SHA256",
      "methods": [
        {
          "name": "<init>",
          "parameterTypes": []
        }
      ]
    },
    {
      "type": "org.bouncycastle.jcajce.provider.asymmetric.rsa.DigestSignatureSpi$SHA512",
      "methods": [
        {
          "name": "<init>",
          "parameterTypes": []
        }
      ]
    },
    {
      "type": "org.bouncycastle.jcajce.provider.asymmetric.rsa.DigestSignatureSpi$noneRSA",
      "methods": [
        {
          "name": "<init>",
          "parameterTypes": []
        }
      ]
    },
    {
      "type": "org.bouncycastle.jcajce.provider.asymmetric.x509.CertificateFactory",
      "methods": [
        {
          "name": "<init>",
          "parameterTypes": []
        }
      ]
    },
    {
      "type": "org.bouncycastle.jcajce.provider.digest.Blake2b$Mappings",
      "methods": [
        {
          "name": "<init>",
          "parameterTypes": []
        }
      ]
    },
    {
      "type": "org.bouncycastle.jcajce.provider.digest.Blake2s$Mappings",
      "methods": [
        {
          "name": "<init>",
          "parameterTypes": []
        }
      ]
    },
    {
      "type": "org.bouncycastle.jcajce.provider.digest.Blake3$Mappings",
      "methods": [
        {
          "name": "<init>",
          "parameterTypes": []
        }
      ]
    },
    {
      "type": "org.bouncycastle.jcajce.provider.digest.DSTU7564$Mappings",
      "methods": [
        {
          "name": "<init>",
          "parameterTypes": []
        }
      ]
    },
    {
      "type": "org.bouncycastle.jcajce.provider.digest.GOST3411$Mappings",
      "methods": [
        {
          "name": "<init>",
          "parameterTypes": []
        }
      ]
    },
    {
      "type": "org.bouncycastle.jcajce.provider.digest.Haraka$Mappings",
      "methods": [
        {
          "name": "<init>",
          "parameterTypes": []
        }
      ]
    },
    {
      "type": "org.bouncycastle.jcajce.provider.digest.Keccak$Mappings",
      "methods": [
        {
          "name": "<init>",
          "parameterTypes": []
        }
      ]
    },
    {
      "type": "org.bouncycastle.jcajce.provider.digest.MD2$Mappings",
      "methods": [
        {
          "name": "<init>",
          "parameterTypes": []
        }
      ]
    },
    {
      "type": "org.bouncycastle.jcajce.provider.digest.MD4$Mappings",
      "methods": [
        {
          "name": "<init>",
          "parameterTypes": []
        }
      ]
    },
    {
      "type": "org.bouncycastle.jcajce.provider.digest.MD5$Mappings",
      "methods": [
        {
          "name": "<init>",
          "parameterTypes": []
        }
      ]
    },
    {
      "type": "org.bouncycastle.jcajce.provider.digest.RIPEMD128$Mappings",
      "methods": [
        {
          "name": "<init>",
          "parameterTypes": []
        }
      ]
    },
    {
      "type": "org.bouncycastle.jcajce.provider.digest.RIPEMD160$Mappings",
      "methods": [
        {
          "name": "<init>",
          "parameterTypes": []
        }
      ]
    },
    {
      "type": "org.bouncycastle.jcajce.provider.digest.RIPEMD256$Mappings",
      "methods": [
        {
          "name": "<init>",
          "parameterTypes": []
        }
      ]
    },
    {
      "type": "org.bouncycastle.jcajce.provider.digest.RIPEMD320$Mappings",
      "methods": [
        {
          "name": "<init>",
          "parameterTypes": []
        }
      ]
    },
    {
      "type": "org.bouncycastle.jcajce.provider.digest.SHA1$Digest",
      "methods": [
        {
          "name": "<init>",
          "parameterTypes": []
        }
      ]
    },
    {
      "type": "org.bouncycastle.jcajce.provider.digest.SHA1$Mappings",
      "methods": [
        {
          "name": "<init>",
          "parameterTypes": []
        }
      ]
    },
    {
      "type": "org.bouncycastle.jcajce.provider.digest.SHA224$Mappings",
      "methods": [
        {
          "name": "<init>",
          "parameterTypes": []
        }
      ]
    },
    {
      "type": "org.bouncycastle.jcajce.provider.digest.SHA256$Digest",
      "methods": [
        {
          "name": "<init>",
          "parameterTypes": []
        }
      ]
    },
    {
      "type": "org.bouncycastle.jcajce.provider.digest.SHA256$Mappings",
      "methods": [
        {
          "name": "<init>",
          "parameterTypes": []
        }
      ]
    },
    {
      "type": "org.bouncycastle.jcajce.provider.digest.SHA3$Mappings",
      "methods": [
        {
          "name": "<init>",
          "parameterTypes": []
        }
      ]
    },
    {
      "type": "org.bouncycastle.jcajce.provider.digest.SHA384$Mappings",
      "methods": [
        {
          "name": "<init>",
          "parameterTypes": []
        }
      ]
    },
    {
      "type": "org.bouncycastle.jcajce.provider.digest.SHA512$Digest",
      "methods": [
        {
          "name": "<init>",
          "parameterTypes": []
        }
      ]
    },
    {
      "type": "org.bouncycastle.jcajce.provider.digest.SHA512$Mappings",
      "methods": [
        {
          "name": "<init>",
          "parameterTypes": []
        }
      ]
    },
    {
      "type": "org.bouncycastle.jcajce.provider.digest.SM3$Mappings",
      "methods": [
        {
          "name": "<init>",
          "parameterTypes": []
        }
      ]
    },
    {
      "type": "org.bouncycastle.jcajce.provider.digest.Skein$Mappings",
      "methods": [
        {
          "name": "<init>",
          "parameterTypes": []
        }
      ]
    },
    {
      "type": "org.bouncycastle.jcajce.provider.digest.Tiger$Mappings",
      "methods": [
        {
          "name": "<init>",
          "parameterTypes": []
        }
      ]
    },
    {
      "type": "org.bouncycastle.jcajce.provider.digest.Whirlpool$Mappings",
      "methods": [
        {
          "name": "<init>",
          "parameterTypes": []
        }
      ]
    },
    {
      "type": "org.bouncycastle.jcajce.provider.drbg.DRBG$Mappings",
      "methods": [
        {
          "name": "<init>",
          "parameterTypes": []
        }
      ]
    },
    {
      "type": "org.bouncycastle.jcajce.provider.keystore.BC$Mappings",
      "methods": [
        {
          "name": "<init>",
          "parameterTypes": []
        }
      ]
    },
    {
      "type": "org.bouncycastle.jcajce.provider.keystore.BCFKS$Mappings",
      "methods": [
        {
          "name": "<init>",
          "parameterTypes": []
        }
      ]
    },
    {
      "type": "org.bouncycastle.jcajce.provider.keystore.PKCS12$Mappings",
      "methods": [
        {
          "name": "<init>",
          "parameterTypes": []
        }
      ]
    },
    {
      "type": "org.bouncycastle.jcajce.provider.symmetric.AES$Mappings",
      "methods": [
        {
          "name": "<init>",
          "parameterTypes": []
        }
      ]
    },
    {
      "type": "org.bouncycastle.jcajce.provider.symmetric.ARC4$Mappings",
      "methods": [
        {
          "name": "<init>",
          "parameterTypes": []
        }
      ]
    },
    {
      "type": "org.bouncycastle.jcajce.provider.symmetric.ARIA$Mappings",
      "methods": [
        {
          "name": "<init>",
          "parameterTypes": []
        }
      ]
    },
    {
      "type": "org.bouncycastle.jcajce.provider.symmetric.Blowfish$Mappings",
      "methods": [
        {
          "name": "<init>",
          "parameterTypes": []
        }
      ]
    },
    {
      "type": "org.bouncycastle.jcajce.provider.symmetric.CAST5$Mappings",
      "methods": [
        {
          "name": "<init>",
          "parameterTypes": []
        }
      ]
    },
    {
      "type": "org.bouncycastle.jcajce.provider.symmetric.CAST6$Mappings",
      "methods": [
        {
          "name": "<init>",
          "parameterTypes": []
        }
      ]
    },
    {
      "type": "org.bouncycastle.jcajce.provider.symmetric.Camellia$Mappings",
      "methods": [
        {
          "name": "<init>",
          "parameterTypes": []
        }
      ]
    },
    {
      "type": "org.bouncycastle.jcajce.provider.symmetric.ChaCha$Mappings",
      "methods": [
        {
          "name": "<init>",
          "parameterTypes": []
        }
      ]
    },
    {
      "type": "org.bouncycastle.jcajce.provider.symmetric.DES$Mappings",
      "methods": [
        {
          "name": "<init>",
          "parameterTypes": []
        }
      ]
    },
    {
      "type": "org.bouncycastle.jcajce.provider.symmetric.DESede$Mappings",
      "methods": [
        {
          "name": "<init>",
          "parameterTypes": []
        }
      ]
    },
    {
      "type": "org.bouncycastle.jcajce.provider.symmetric.DSTU7624$Mappings",
      "methods": [
        {
          "name": "<init>",
          "parameterTypes": []
        }
      ]
    },
    {
      "type": "org.bouncycastle.jcajce.provider.symmetric.GOST28147$Mappings",
      "methods": [
        {
          "name": "<init>",
          "parameterTypes": []
        }
      ]
    },
    {
      "type": "org.bouncycastle.jcajce.provider.symmetric.GOST3412_2015$Mappings",
      "methods": [
        {
          "name": "<init>",
          "parameterTypes": []
        }
      ]
    },
    {
      "type": "org.bouncycastle.jcajce.provider.symmetric.Grain128$Mappings",
      "methods": [
        {
          "name": "<init>",
          "parameterTypes": []
        }
      ]
    },
    {
      "type": "org.bouncycastle.jcajce.provider.symmetric.Grainv1$Mappings",
      "methods": [
        {
          "name": "<init>",
          "parameterTypes": []
        }
      ]
    },
    {
      "type": "org.bouncycastle.jcajce.provider.symmetric.HC128$Mappings",
      "methods": [
        {
          "name": "<init>",
          "parameterTypes": []
        }
      ]
    },
    {
      "type": "org.bouncycastle.jcajce.provider.symmetric.HC256$Mappings",
      "methods": [
        {
          "name": "<init>",
          "parameterTypes": []
        }
      ]
    },
    {
      "type": "org.bouncycastle.jcajce.provider.symmetric.IDEA$Mappings",
      "methods": [
        {
          "name": "<init>",
          "parameterTypes": []
        }
      ]
    },
    {
      "type": "org.bouncycastle.jcajce.provider.symmetric.Noekeon$Mappings",
      "methods": [
        {
          "name": "<init>",
          "parameterTypes": []
        }
      ]
    },
    {
      "type": "org.bouncycastle.jcajce.provider.symmetric.OpenSSLPBKDF$Mappings",
      "methods": [
        {
          "name": "<init>",
          "parameterTypes": []
        }
      ]
    },
    {
      "type": "org.bouncycastle.jcajce.provider.symmetric.PBEPBKDF1$Mappings",
      "methods": [
        {
          "name": "<init>",
          "parameterTypes": []
        }
      ]
    },
    {
      "type": "org.bouncycastle.jcajce.provider.symmetric.PBEPBKDF2$Mappings",
      "methods": [
        {
          "name": "<init>",
          "parameterTypes": []
        }
      ]
    },
    {
      "type": "org.bouncycastle.jcajce.provider.symmetric.PBEPKCS12$Mappings",
      "methods": [
        {
          "name": "<init>",
          "parameterTypes": []
        }
      ]
    },
    {
      "type": "org.bouncycastle.jcajce.provider.symmetric.Poly1305$Mappings",
      "methods": [
        {
          "name": "<init>",
          "parameterTypes": []
        }
      ]
    },
    {
      "type": "org.bouncycastle.jcajce.provider.symmetric.RC2$Mappings",
      "methods": [
        {
          "name": "<init>",
          "parameterTypes": []
        }
      ]
    },
    {
      "type": "org.bouncycastle.jcajce.provider.symmetric.RC5$Mappings",
      "methods": [
        {
          "name": "<init>",
          "parameterTypes": []
        }
      ]
    },
    {
      "type": "org.bouncycastle.jcajce.provider.symmetric.RC6$Mappings",
      "methods": [
        {
          "name": "<init>",
          "parameterTypes": []
        }
      ]
    },
    {
      "type": "org.bouncycastle.jcajce.provider.symmetric.Rijndael$Mappings",
      "methods": [
        {
          "name": "<init>",
          "parameterTypes": []
        }
      ]
    },
    {
      "type": "org.bouncycastle.jcajce.provider.symmetric.SCRYPT$Mappings",
      "methods": [
        {
          "name": "<init>",
          "parameterTypes": []
        }
      ]
    },
    {
      "type": "org.bouncycastle.jcajce.provider.symmetric.SEED$Mappings",
      "methods": [
        {
          "name": "<init>",
          "parameterTypes": []
        }
      ]
    },
    {
      "type": "org.bouncycastle.jcajce.provider.symmetric.SM4$Mappings",
      "methods": [
        {
          "name": "<init>",
          "parameterTypes": []
        }
      ]
    },
    {
      "type": "org.bouncycastle.jcajce.provider.symmetric.Salsa20$Mappings",
      "methods": [
        {
          "name": "<init>",
          "parameterTypes": []
        }
      ]
    },
    {
      "type": "org.bouncycastle.jcajce.provider.symmetric.Serpent$Mappings",
      "methods": [
        {
          "name": "<init>",
          "parameterTypes": []
        }
      ]
    },
    {
      "type": "org.bouncycastle.jcajce.provider.symmetric.Shacal2$Mappings",
      "methods": [
        {
          "name": "<init>",
          "parameterTypes": []
        }
      ]
    },
    {
      "type": "org.bouncycastle.jcajce.provider.symmetric.SipHash$Mappings",
      "methods": [
        {
          "name": "<init>",
          "parameterTypes": []
        }
      ]
    },
    {
      "type": "org.bouncycastle.jcajce.provider.symmetric.SipHash128$Mappings",
      "methods": [
        {
          "name": "<init>",
          "parameterTypes": []
        }
      ]
    },
    {
      "type": "org.bouncycastle.jcajce.provider.symmetric.Skipjack$Mappings",
      "methods": [
        {
          "name": "<init>",
          "parameterTypes": []
        }
      ]
    },
    {
      "type": "org.bouncycastle.jcajce.provider.symmetric.TEA$Mappings",
      "methods": [
        {
          "name": "<init>",
          "parameterTypes": []
        }
      ]
    },
    {
      "type": "org.bouncycastle.jcajce.provider.symmetric.TLSKDF$Mappings",
      "methods": [
        {
          "name": "<init>",
          "parameterTypes": []
        }
      ]
    },
    {
      "type": "org.bouncycastle.jcajce.provider.symmetric.Threefish$Mappings",
      "methods": [
        {
          "name": "<init>",
          "parameterTypes": []
        }
      ]
    },
    {
      "type": "org.bouncycastle.jcajce.provider.symmetric.Twofish$Mappings",
      "methods": [
        {
          "name": "<init>",
          "parameterTypes": []
        }
      ]
    },
    {
      "type": "org.bouncycastle.jcajce.provider.symmetric.VMPC$Mappings",
      "methods": [
        {
          "name": "<init>",
          "parameterTypes": []
        }
      ]
    },
    {
      "type": "org.bouncycastle.jcajce.provider.symmetric.VMPCKSA3$Mappings",
      "methods": [
        {
          "name": "<init>",
          "parameterTypes": []
        }
      ]
    },
    {
      "type": "org.bouncycastle.jcajce.provider.symmetric.XSalsa20$Mappings",
      "methods": [
        {
          "name": "<init>",
          "parameterTypes": []
        }
      ]
    },
    {
      "type": "org.bouncycastle.jcajce.provider.symmetric.XTEA$Mappings",
      "methods": [
        {
          "name": "<init>",
          "parameterTypes": []
        }
      ]
    },
    {
      "type": "org.bouncycastle.jcajce.provider.symmetric.Zuc$Mappings",
      "methods": [
        {
          "name": "<init>",
          "parameterTypes": []
        }
      ]
    },
    {
      "type": "org.brotli.dec.BrotliInputStream"
    },
    {
      "type": "org.glassfish.jaxb.core.v2.model.nav.ReflectionNavigator",
      "methods": [
        {
          "name": "getInstance",
          "parameterTypes": []
        }
      ]
    },
    {
      "type": "org.glassfish.jaxb.runtime.v2.ContextFactory",
      "methods": [
        {
          "name": "createContext",
          "parameterTypes": [
            "java.lang.Class[]",
            "java.util.Map"
          ]
        }
      ]
    },
    {
      "type": "org.glassfish.jaxb.runtime.v2.runtime.property.ArrayElementLeafProperty",
      "methods": [
        {
          "name": "<init>",
          "parameterTypes": [
            "org.glassfish.jaxb.runtime.v2.runtime.JAXBContextImpl",
            "org.glassfish.jaxb.runtime.v2.model.runtime.RuntimeElementPropertyInfo"
          ]
        }
      ]
    },
    {
      "type": "org.glassfish.jaxb.runtime.v2.runtime.property.ArrayElementNodeProperty",
      "methods": [
        {
          "name": "<init>",
          "parameterTypes": [
            "org.glassfish.jaxb.runtime.v2.runtime.JAXBContextImpl",
            "org.glassfish.jaxb.runtime.v2.model.runtime.RuntimeElementPropertyInfo"
          ]
        }
      ]
    },
    {
      "type": "org.glassfish.jaxb.runtime.v2.runtime.property.ArrayReferenceNodeProperty"
    },
    {
      "type": "org.glassfish.jaxb.runtime.v2.runtime.property.SingleElementLeafProperty",
      "methods": [
        {
          "name": "<init>",
          "parameterTypes": [
            "org.glassfish.jaxb.runtime.v2.runtime.JAXBContextImpl",
            "org.glassfish.jaxb.runtime.v2.model.runtime.RuntimeElementPropertyInfo"
          ]
        }
      ]
    },
    {
      "type": "org.glassfish.jaxb.runtime.v2.runtime.property.SingleElementNodeProperty",
      "methods": [
        {
          "name": "<init>",
          "parameterTypes": [
            "org.glassfish.jaxb.runtime.v2.runtime.JAXBContextImpl",
            "org.glassfish.jaxb.runtime.v2.model.runtime.RuntimeElementPropertyInfo"
          ]
        }
      ]
    },
    {
      "type": "org.glassfish.jaxb.runtime.v2.runtime.property.SingleMapNodeProperty"
    },
    {
      "type": "org.glassfish.jaxb.runtime.v2.runtime.property.SingleReferenceNodeProperty"
    },
    {
      "type": "org.glassfish.jaxb.runtime.v2.runtime.unmarshaller.StAXExConnector"
    },
    {
      "type": "org.jvnet.fastinfoset.stax.FastInfosetStreamReader"
    },
    {
      "type": "org.jvnet.staxex.XMLStreamReaderEx"
    },
    {
      "type": "org.slf4j.Logger"
    },
    {
      "type": "org.slf4j.jul.JULServiceProvider"
    },
    {
      "type": "sun.java2d.cmm.kcms.KcmsServiceProvider"
    },
    {
      "type": "sun.java2d.marlin.DMarlinRenderingEngine",
      "methods": [
        {
          "name": "<init>",
          "parameterTypes": []
        }
      ]
    },
    {
      "type": "sun.security.pkcs12.PKCS12KeyStore",
      "methods": [
        {
          "name": "<init>",
          "parameterTypes": []
        }
      ]
    },
    {
      "type": "sun.security.pkcs12.PKCS12KeyStore$DualFormatPKCS12",
      "methods": [
        {
          "name": "<init>",
          "parameterTypes": []
        }
      ]
    },
    {
      "type": "sun.security.provider.DSA$SHA224withDSA",
      "methods": [
        {
          "name": "<init>",
          "parameterTypes": []
        }
      ]
    },
    {
      "type": "sun.security.provider.DSA$SHA256withDSA",
      "methods": [
        {
          "name": "<init>",
          "parameterTypes": []
        }
      ]
    },
    {
      "type": "sun.security.provider.JavaKeyStore$DualFormatJKS",
      "methods": [
        {
          "name": "<init>",
          "parameterTypes": []
        }
      ]
    },
    {
      "type": "sun.security.provider.JavaKeyStore$JKS",
      "methods": [
        {
          "name": "<init>",
          "parameterTypes": []
        }
      ]
    },
    {
      "type": "sun.security.provider.MD5",
      "methods": [
        {
          "name": "<init>",
          "parameterTypes": []
        }
      ]
    },
    {
      "type": "sun.security.provider.NativePRNG",
      "methods": [
        {
          "name": "<init>",
          "parameterTypes": []
        },
        {
          "name": "<init>",
          "parameterTypes": [
            "java.security.SecureRandomParameters"
          ]
        }
      ]
    },
    {
      "type": "sun.security.provider.SHA",
      "methods": [
        {
          "name": "<init>",
          "parameterTypes": []
        }
      ]
    },
    {
      "type": "sun.security.provider.SHA2$SHA224",
      "methods": [
        {
          "name": "<init>",
          "parameterTypes": []
        }
      ]
    },
    {
      "type": "sun.security.provider.SHA2$SHA256",
      "methods": [
        {
          "name": "<init>",
          "parameterTypes": []
        }
      ]
    },
    {
      "type": "sun.security.provider.SHA5$SHA384",
      "methods": [
        {
          "name": "<init>",
          "parameterTypes": []
        }
      ]
    },
    {
      "type": "sun.security.provider.SHA5$SHA512",
      "methods": [
        {
          "name": "<init>",
          "parameterTypes": []
        }
      ]
    },
    {
      "type": "sun.security.provider.X509Factory",
      "methods": [
        {
          "name": "<init>",
          "parameterTypes": []
        }
      ]
    },
    {
      "type": "sun.security.provider.certpath.PKIXCertPathValidator",
      "methods": [
        {
          "name": "<init>",
          "parameterTypes": []
        }
      ]
    },
    {
      "type": "sun.security.rsa.PSSParameters",
      "methods": [
        {
          "name": "<init>",
          "parameterTypes": []
        }
      ]
    },
    {
      "type": "sun.security.rsa.RSAKeyFactory$Legacy",
      "methods": [
        {
          "name": "<init>",
          "parameterTypes": []
        }
      ]
    },
    {
      "type": "sun.security.rsa.RSAPSSSignature",
      "methods": [
        {
          "name": "<init>",
          "parameterTypes": []
        }
      ]
    },
    {
      "type": "sun.security.rsa.RSASignature$SHA1withRSA",
      "methods": [
        {
          "name": "<init>",
          "parameterTypes": []
        }
      ]
    },
    {
      "type": "sun.security.rsa.RSASignature$SHA224withRSA",
      "methods": [
        {
          "name": "<init>",
          "parameterTypes": []
        }
      ]
    },
    {
      "type": "sun.security.rsa.RSASignature$SHA256withRSA",
      "methods": [
        {
          "name": "<init>",
          "parameterTypes": []
        }
      ]
    },
    {
      "type": "sun.security.rsa.RSASignature$SHA512withRSA",
      "methods": [
        {
          "name": "<init>",
          "parameterTypes": []
        }
      ]
    },
    {
      "type": "sun.security.ssl.KeyManagerFactoryImpl$SunX509",
      "methods": [
        {
          "name": "<init>",
          "parameterTypes": []
        }
      ]
    },
    {
      "type": "sun.security.ssl.SSLContextImpl$DefaultSSLContext",
      "methods": [
        {
          "name": "<init>",
          "parameterTypes": []
        }
      ]
    },
    {
      "type": "sun.security.ssl.SSLContextImpl$TLSContext",
      "methods": [
        {
          "name": "<init>",
          "parameterTypes": []
        }
      ]
    },
    {
      "type": "sun.security.ssl.TrustManagerFactoryImpl$PKIXFactory",
      "methods": [
        {
          "name": "<init>",
          "parameterTypes": []
        }
      ]
    },
    {
      "type": "sun.security.util.ObjectIdentifier"
    },
    {
      "type": "sun.security.x509.AuthorityInfoAccessExtension",
      "methods": [
        {
          "name": "<init>",
          "parameterTypes": [
            "java.lang.Boolean",
            "java.lang.Object"
          ]
        }
      ]
    },
    {
      "type": "sun.security.x509.AuthorityKeyIdentifierExtension",
      "methods": [
        {
          "name": "<init>",
          "parameterTypes": [
            "java.lang.Boolean",
            "java.lang.Object"
          ]
        }
      ]
    },
    {
      "type": "sun.security.x509.BasicConstraintsExtension",
      "methods": [
        {
          "name": "<init>",
          "parameterTypes": [
            "java.lang.Boolean",
            "java.lang.Object"
          ]
        }
      ]
    },
    {
      "type": "sun.security.x509.CRLDistributionPointsExtension",
      "methods": [
        {
          "name": "<init>",
          "parameterTypes": [
            "java.lang.Boolean",
            "java.lang.Object"
          ]
        }
      ]
    },
    {
      "type": "sun.security.x509.CertificateExtensions"
    },
    {
      "type": "sun.security.x509.CertificatePoliciesExtension",
      "methods": [
        {
          "name": "<init>",
          "parameterTypes": [
            "java.lang.Boolean",
            "java.lang.Object"
          ]
        }
      ]
    },
    {
      "type": "sun.security.x509.ExtendedKeyUsageExtension",
      "methods": [
        {
          "name": "<init>",
          "parameterTypes": [
            "java.lang.Boolean",
            "java.lang.Object"
          ]
        }
      ]
    },
    {
      "type": "sun.security.x509.IssuerAlternativeNameExtension",
      "methods": [
        {
          "name": "<init>",
          "parameterTypes": [
            "java.lang.Boolean",
            "java.lang.Object"
          ]
        }
      ]
    },
    {
      "type": "sun.security.x509.KeyUsageExtension",
      "methods": [
        {
          "name": "<init>",
          "parameterTypes": [
            "java.lang.Boolean",
            "java.lang.Object"
          ]
        }
      ]
    },
    {
      "type": "sun.security.x509.NetscapeCertTypeExtension",
      "methods": [
        {
          "name": "<init>",
          "parameterTypes": [
            "java.lang.Boolean",
            "java.lang.Object"
          ]
        }
      ]
    },
    {
      "type": "sun.security.x509.PrivateKeyUsageExtension",
      "methods": [
        {
          "name": "<init>",
          "parameterTypes": [
            "java.lang.Boolean",
            "java.lang.Object"
          ]
        }
      ]
    },
    {
      "type": "sun.security.x509.SubjectAlternativeNameExtension",
      "methods": [
        {
          "name": "<init>",
          "parameterTypes": [
            "java.lang.Boolean",
            "java.lang.Object"
          ]
        }
      ]
    },
    {
      "type": "sun.security.x509.SubjectKeyIdentifierExtension",
      "methods": [
        {
          "name": "<init>",
          "parameterTypes": [
            "java.lang.Boolean",
            "java.lang.Object"
          ]
        }
      ]
    },
    {
      "type": {
        "proxy": [
          "jakarta.xml.bind.annotation.XmlAccessorType",
          "org.glassfish.jaxb.core.v2.model.annotation.Locatable"
        ]
      }
    },
    {
      "type": {
        "proxy": [
          "jakarta.xml.bind.annotation.XmlElements",
          "org.glassfish.jaxb.core.v2.model.annotation.Locatable"
        ]
      }
    },
    {
      "type": {
        "proxy": [
          "jakarta.xml.bind.annotation.XmlRegistry",
          "org.glassfish.jaxb.core.v2.model.annotation.Locatable"
        ]
      }
    },
    {
      "type": {
        "proxy": [
          "jakarta.xml.bind.annotation.XmlSeeAlso",
          "org.glassfish.jaxb.core.v2.model.annotation.Locatable"
        ]
      }
    },
    {
      "type": {
        "proxy": [
          "jakarta.xml.bind.annotation.adapters.XmlJavaTypeAdapter",
          "org.glassfish.jaxb.core.v2.model.annotation.Locatable"
        ]
      }
    }
  ],
  "jni": [
    {
      "type": "[Lsun.java2d.loops.GraphicsPrimitive;"
    },
    {
      "type": "com.sun.imageio.plugins.jpeg.JPEGImageReader",
      "methods": [
        {
          "name": "acceptPixels",
          "parameterTypes": [
            "int",
            "boolean"
          ]
        },
        {
          "name": "passComplete",
          "parameterTypes": []
        },
        {
          "name": "passStarted",
          "parameterTypes": [
            "int"
          ]
        },
        {
          "name": "pushBack",
          "parameterTypes": [
            "int"
          ]
        },
        {
          "name": "readInputData",
          "parameterTypes": [
            "byte[]",
            "int",
            "int"
          ]
        },
        {
          "name": "setImageData",
          "parameterTypes": [
            "int",
            "int",
            "int",
            "int",
            "int",
            "byte[]"
          ]
        },
        {
          "name": "skipInputBytes",
          "parameterTypes": [
            "long"
          ]
        },
        {
          "name": "skipPastImage",
          "parameterTypes": [
            "int"
          ]
        },
        {
          "name": "warningOccurred",
          "parameterTypes": [
            "int"
          ]
        },
        {
          "name": "warningWithMessage",
          "parameterTypes": [
            "java.lang.String"
          ]
        }
      ]
    },
    {
      "type": "java.awt.AlphaComposite",
      "fields": [
        {
          "name": "extraAlpha"
        },
        {
          "name": "rule"
        }
      ]
    },
    {
      "type": "java.awt.Color",
      "fields": [
        {
          "name": "value"
        }
      ],
      "methods": [
        {
          "name": "getRGB",
          "parameterTypes": []
        }
      ]
    },
    {
      "type": "java.awt.GraphicsEnvironment",
      "methods": [
        {
          "name": "isHeadless",
          "parameterTypes": []
        }
      ]
    },
    {
      "type": "java.awt.Rectangle",
      "methods": [
        {
          "name": "<init>",
          "parameterTypes": [
            "int",
            "int",
            "int",
            "int"
          ]
        }
      ]
    },
    {
      "type": "java.awt.geom.AffineTransform",
      "fields": [
        {
          "name": "m00"
        },
        {
          "name": "m01"
        },
        {
          "name": "m02"
        },
        {
          "name": "m10"
        },
        {
          "name": "m11"
        },
        {
          "name": "m12"
        }
      ]
    },
    {
      "type": "java.awt.geom.Path2D",
      "fields": [
        {
          "name": "numTypes"
        },
        {
          "name": "pointTypes"
        },
        {
          "name": "windingRule"
        }
      ]
    },
    {
      "type": "java.awt.geom.Path2D$Float",
      "fields": [
        {
          "name": "floatCoords"
        }
      ]
    },
    {
      "type": "java.awt.image.BufferedImage",
      "fields": [
        {
          "name": "colorModel"
        },
        {
          "name": "imageType"
        },
        {
          "name": "raster"
        }
      ],
      "methods": [
        {
          "name": "getRGB",
          "parameterTypes": [
            "int",
            "int",
            "int",
            "int",
            "int[]",
            "int",
            "int"
          ]
        },
        {
          "name": "setRGB",
          "parameterTypes": [
            "int",
            "int",
            "int",
            "int",
            "int[]",
            "int",
            "int"
          ]
        }
      ]
    },
    {
      "type": "java.awt.image.ColorModel",
      "fields": [
        {
          "name": "colorSpace"
        },
        {
          "name": "colorSpaceType"
        },
        {
          "name": "isAlphaPremultiplied"
        },
        {
          "name": "is_sRGB"
        },
        {
          "name": "nBits"
        },
        {
          "name": "numComponents"
        },
        {
          "name": "supportsAlpha"
        },
        {
          "name": "transparency"
        }
      ],
      "methods": [
        {
          "name": "getRGBdefault",
          "parameterTypes": []
        }
      ]
    },
    {
      "type": "java.awt.image.IndexColorModel",
      "fields": [
        {
          "name": "allgrayopaque"
        },
        {
          "name": "colorData"
        },
        {
          "name": "map_size"
        },
        {
          "name": "rgb"
        },
        {
          "name": "transparent_index"
        }
      ]
    },
    {
      "type": "java.awt.image.Raster",
      "fields": [
        {
          "name": "dataBuffer"
        },
        {
          "name": "height"
        },
        {
          "name": "minX"
        },
        {
          "name": "minY"
        },
        {
          "name": "numBands"
        },
        {
          "name": "numDataElements"
        },
        {
          "name": "sampleModel"
        },
        {
          "name": "sampleModelTranslateX"
        },
        {
          "name": "sampleModelTranslateY"
        },
        {
          "name": "width"
        }
      ]
    },
    {
      "type": "java.awt.image.SampleModel",
      "fields": [
        {
          "name": "height"
        },
        {
          "name": "width"
        }
      ],
      "methods": [
        {
          "name": "getPixels",
          "parameterTypes": [
            "int",
            "int",
            "int",
            "int",
            "int[]",
            "java.awt.image.DataBuffer"
          ]
        },
        {
          "name": "setPixels",
          "parameterTypes": [
            "int",
            "int",
            "int",
            "int",
            "int[]",
            "java.awt.image.DataBuffer"
          ]
        }
      ]
    },
    {
      "type": "java.awt.image.SinglePixelPackedSampleModel",
      "fields": [
        {
          "name": "bitMasks"
        },
        {
          "name": "bitOffsets"
        },
        {
          "name": "bitSizes"
        },
        {
          "name": "maxBitSize"
        }
      ]
    },
    {
      "type": "java.lang.Boolean",
      "methods": [
        {
          "name": "getBoolean",
          "parameterTypes": [
            "java.lang.String"
          ]
        }
      ]
    },
    {
      "type": "java.lang.System",
      "methods": [
        {
          "name": "load",
          "parameterTypes": [
            "java.lang.String"
          ]
        }
      ]
    },
    {
      "type": "java.lang.Thread",
      "methods": [
        {
          "name": "yield",
          "parameterTypes": []
        }
      ]
    },
    {
      "type": "javax.imageio.plugins.jpeg.JPEGHuffmanTable",
      "fields": [
        {
          "name": "lengths"
        },
        {
          "name": "values"
        }
      ]
    },
    {
      "type": "javax.imageio.plugins.jpeg.JPEGQTable",
      "fields": [
        {
          "name": "qTable"
        }
      ]
    },
    {
      "type": "sun.awt.SunHints",
      "fields": [
        {
          "name": "INTVAL_STROKE_PURE"
        }
      ]
    },
    {
      "type": "sun.awt.SunToolkit",
      "methods": [
        {
          "name": "awtLock",
          "parameterTypes": []
        },
        {
          "name": "awtLockNotify",
          "parameterTypes": []
        },
        {
          "name": "awtLockNotifyAll",
          "parameterTypes": []
        },
        {
          "name": "awtLockWait",
          "parameterTypes": [
            "long"
          ]
        },
        {
          "name": "awtUnlock",
          "parameterTypes": []
        }
      ]
    },
    {
      "type": "sun.awt.X11.XErrorHandlerUtil",
      "methods": [
        {
          "name": "init",
          "parameterTypes": [
            "long"
          ]
        }
      ]
    },
    {
      "type": "sun.awt.X11.XToolkit",
      "fields": [
        {
          "name": "modLockIsShiftLock"
        },
        {
          "name": "numLockMask"
        }
      ]
    },
    {
      "type": "sun.awt.image.BufImgSurfaceData$ICMColorData",
      "fields": [
        {
          "name": "pData"
        }
      ],
      "methods": [
        {
          "name": "<init>",
          "parameterTypes": [
            "long"
          ]
        }
      ]
    },
    {
      "type": "sun.awt.image.ByteComponentRaster",
      "fields": [
        {
          "name": "data"
        },
        {
          "name": "dataOffsets"
        },
        {
          "name": "pixelStride"
        },
        {
          "name": "scanlineStride"
        },
        {
          "name": "type"
        }
      ]
    },
    {
      "type": "sun.awt.image.ImageRepresentation",
      "fields": [
        {
          "name": "numSrcLUT"
        },
        {
          "name": "srcLUTtransIndex"
        }
      ]
    },
    {
      "type": "sun.awt.image.IntegerComponentRaster",
      "fields": [
        {
          "name": "data"
        },
        {
          "name": "dataOffsets"
        },
        {
          "name": "pixelStride"
        },
        {
          "name": "scanlineStride"
        },
        {
          "name": "type"
        }
      ]
    },
    {
      "type": "sun.java2d.Disposer",
      "methods": [
        {
          "name": "addRecord",
          "parameterTypes": [
            "java.lang.Object",
            "long",
            "long"
          ]
        }
      ]
    },
    {
      "type": "sun.java2d.InvalidPipeException"
    },
    {
      "type": "sun.java2d.NullSurfaceData"
    },
    {
      "type": "sun.java2d.SunGraphics2D",
      "fields": [
        {
          "name": "clipRegion"
        },
        {
          "name": "composite"
        },
        {
          "name": "eargb"
        },
        {
          "name": "lcdTextContrast"
        },
        {
          "name": "pixel"
        },
        {
          "name": "strokeHint"
        }
      ]
    },
    {
      "type": "sun.java2d.SurfaceData",
      "fields": [
        {
          "name": "pData"
        },
        {
          "name": "valid"
        }
      ]
    },
    {
      "type": "sun.java2d.loops.Blit",
      "methods": [
        {
          "name": "<init>",
          "parameterTypes": [
            "long",
            "sun.java2d.loops.SurfaceType",
            "sun.java2d.loops.CompositeType",
            "sun.java2d.loops.SurfaceType"
          ]
        }
      ]
    },
    {
      "type": "sun.java2d.loops.BlitBg",
      "methods": [
        {
          "name": "<init>",
          "parameterTypes": [
            "long",
            "sun.java2d.loops.SurfaceType",
            "sun.java2d.loops.CompositeType",
            "sun.java2d.loops.SurfaceType"
          ]
        }
      ]
    },
    {
      "type": "sun.java2d.loops.CompositeType",
      "fields": [
        {
          "name": "AnyAlpha"
        },
        {
          "name": "Src"
        },
        {
          "name": "SrcNoEa"
        },
        {
          "name": "SrcOver"
        },
        {
          "name": "SrcOverNoEa"
        },
        {
          "name": "Xor"
        }
      ]
    },
    {
      "type": "sun.java2d.loops.DrawGlyphList",
      "methods": [
        {
          "name": "<init>",
          "parameterTypes": [
            "long",
            "sun.java2d.loops.SurfaceType",
            "sun.java2d.loops.CompositeType",
            "sun.java2d.loops.SurfaceType"
          ]
        }
      ]
    },
    {
      "type": "sun.java2d.loops.DrawGlyphListAA",
      "methods": [
        {
          "name": "<init>",
          "parameterTypes": [
            "long",
            "sun.java2d.loops.SurfaceType",
            "sun.java2d.loops.CompositeType",
            "sun.java2d.loops.SurfaceType"
          ]
        }
      ]
    },
    {
      "type": "sun.java2d.loops.DrawGlyphListLCD",
      "methods": [
        {
          "name": "<init>",
          "parameterTypes": [
            "long",
            "sun.java2d.loops.SurfaceType",
            "sun.java2d.loops.CompositeType",
            "sun.java2d.loops.SurfaceType"
          ]
        }
      ]
    },
    {
      "type": "sun.java2d.loops.DrawLine",
      "methods": [
        {
          "name": "<init>",
          "parameterTypes": [
            "long",
            "sun.java2d.loops.SurfaceType",
            "sun.java2d.loops.CompositeType",
            "sun.java2d.loops.SurfaceType"
          ]
        }
      ]
    },
    {
      "type": "sun.java2d.loops.DrawParallelogram",
      "methods": [
        {
          "name": "<init>",
          "parameterTypes": [
            "long",
            "sun.java2d.loops.SurfaceType",
            "sun.java2d.loops.CompositeType",
            "sun.java2d.loops.SurfaceType"
          ]
        }
      ]
    },
    {
      "type": "sun.java2d.loops.DrawPath",
      "methods": [
        {
          "name": "<init>",
          "parameterTypes": [
            "long",
            "sun.java2d.loops.SurfaceType",
            "sun.java2d.loops.CompositeType",
            "sun.java2d.loops.SurfaceType"
          ]
        }
      ]
    },
    {
      "type": "sun.java2d.loops.DrawPolygons",
      "methods": [
        {
          "name": "<init>",
          "parameterTypes": [
            "long",
            "sun.java2d.loops.SurfaceType",
            "sun.java2d.loops.CompositeType",
            "sun.java2d.loops.SurfaceType"
          ]
        }
      ]
    },
    {
      "type": "sun.java2d.loops.DrawRect",
      "methods": [
        {
          "name": "<init>",
          "parameterTypes": [
            "long",
            "sun.java2d.loops.SurfaceType",
            "sun.java2d.loops.CompositeType",
            "sun.java2d.loops.SurfaceType"
          ]
        }
      ]
    },
    {
      "type": "sun.java2d.loops.FillParallelogram",
      "methods": [
        {
          "name": "<init>",
          "parameterTypes": [
            "long",
            "sun.java2d.loops.SurfaceType",
            "sun.java2d.loops.CompositeType",
            "sun.java2d.loops.SurfaceType"
          ]
        }
      ]
    },
    {
      "type": "sun.java2d.loops.FillPath",
      "methods": [
        {
          "name": "<init>",
          "parameterTypes": [
            "long",
            "sun.java2d.loops.SurfaceType",
            "sun.java2d.loops.CompositeType",
            "sun.java2d.loops.SurfaceType"
          ]
        }
      ]
    },
    {
      "type": "sun.java2d.loops.FillRect",
      "methods": [
        {
          "name": "<init>",
          "parameterTypes": [
            "long",
            "sun.java2d.loops.SurfaceType",
            "sun.java2d.loops.CompositeType",
            "sun.java2d.loops.SurfaceType"
          ]
        }
      ]
    },
    {
      "type": "sun.java2d.loops.FillSpans",
      "methods": [
        {
          "name": "<init>",
          "parameterTypes": [
            "long",
            "sun.java2d.loops.SurfaceType",
            "sun.java2d.loops.CompositeType",
            "sun.java2d.loops.SurfaceType"
          ]
        }
      ]
    },
    {
      "type": "sun.java2d.loops.GraphicsPrimitive",
      "fields": [
        {
          "name": "pNativePrim"
        }
      ]
    },
    {
      "type": "sun.java2d.loops.GraphicsPrimitiveMgr",
      "methods": [
        {
          "name": "register",
          "parameterTypes": [
            "sun.java2d.loops.GraphicsPrimitive[]"
          ]
        }
      ]
    },
    {
      "type": "sun.java2d.loops.MaskBlit",
      "methods": [
        {
          "name": "<init>",
          "parameterTypes": [
            "long",
            "sun.java2d.loops.SurfaceType",
            "sun.java2d.loops.CompositeType",
            "sun.java2d.loops.SurfaceType"
          ]
        }
      ]
    },
    {
      "type": "sun.java2d.loops.MaskFill",
      "methods": [
        {
          "name": "<init>",
          "parameterTypes": [
            "long",
            "sun.java2d.loops.SurfaceType",
            "sun.java2d.loops.CompositeType",
            "sun.java2d.loops.SurfaceType"
          ]
        }
      ]
    },
    {
      "type": "sun.java2d.loops.ScaledBlit",
      "methods": [
        {
          "name": "<init>",
          "parameterTypes": [
            "long",
            "sun.java2d.loops.SurfaceType",
            "sun.java2d.loops.CompositeType",
            "sun.java2d.loops.SurfaceType"
          ]
        }
      ]
    },
    {
      "type": "sun.java2d.loops.SurfaceType",
      "fields": [
        {
          "name": "Any3Byte"
        },
        {
          "name": "Any4Byte"
        },
        {
          "name": "AnyByte"
        },
        {
          "name": "AnyColor"
        },
        {
          "name": "AnyInt"
        },
        {
          "name": "AnyShort"
        },
        {
          "name": "ByteBinary1Bit"
        },
        {
          "name": "ByteBinary2Bit"
        },
        {
          "name": "ByteBinary4Bit"
        },
        {
          "name": "ByteGray"
        },
        {
          "name": "ByteIndexed"
        },
        {
          "name": "ByteIndexedBm"
        },
        {
          "name": "FourByteAbgr"
        },
        {
          "name": "FourByteAbgrPre"
        },
        {
          "name": "Index12Gray"
        },
        {
          "name": "Index8Gray"
        },
        {
          "name": "IntArgb"
        },
        {
          "name": "IntArgbBm"
        },
        {
          "name": "IntArgbPre"
        },
        {
          "name": "IntBgr"
        },
        {
          "name": "IntRgb"
        },
        {
          "name": "IntRgbx"
        },
        {
          "name": "OpaqueColor"
        },
        {
          "name": "ThreeByteBgr"
        },
        {
          "name": "Ushort4444Argb"
        },
        {
          "name": "Ushort555Rgb"
        },
        {
          "name": "Ushort555Rgbx"
        },
        {
          "name": "Ushort565Rgb"
        },
        {
          "name": "UshortGray"
        },
        {
          "name": "UshortIndexed"
        }
      ]
    },
    {
      "type": "sun.java2d.loops.TransformHelper",
      "methods": [
        {
          "name": "<init>",
          "parameterTypes": [
            "long",
            "sun.java2d.loops.SurfaceType",
            "sun.java2d.loops.CompositeType",
            "sun.java2d.loops.SurfaceType"
          ]
        }
      ]
    },
    {
      "type": "sun.java2d.loops.XORComposite",
      "fields": [
        {
          "name": "alphaMask"
        },
        {
          "name": "xorColor"
        },
        {
          "name": "xorPixel"
        }
      ]
    },
    {
      "type": "sun.java2d.pipe.Region",
      "fields": [
        {
          "name": "bands"
        },
        {
          "name": "endIndex"
        },
        {
          "name": "hix"
        },
        {
          "name": "hiy"
        },
        {
          "name": "lox"
        },
        {
          "name": "loy"
        }
      ]
    },
    {
      "type": "sun.java2d.pipe.RegionIterator",
      "fields": [
        {
          "name": "curIndex"
        },
        {
          "name": "numXbands"
        },
        {
          "name": "region"
        }
      ]
    },
    {
      "type": "sun.java2d.pipe.ShapeSpanIterator",
      "fields": [
        {
          "name": "pData"
        }
      ]
    },
    {
      "type": "sun.java2d.xr.XRSurfaceData",
      "fields": [
        {
          "name": "picture"
        },
        {
          "name": "xid"
        }
      ]
    }
  ]
}